id~name~Цена (plain) (#10)~Цена (plain) (#10)~Цена (plain) (#10)~Цена (plain) (#10)~Цена (plain) (#10)~Цена (plain) (#10)~Цена (plain) (#10)
79~Tyrosine 600 60 капсул~default_variant:0;_value:264000 byr~~~~~~
117~Magne-100 Sport Liquid 25 мл~default_variant:0;_value:27500 byr~вкус:Грейпфрут~вкус:Малина~~~~
118~Magne-100 Sport 60 капсул~default_variant:0;_value:104500 byr~~~~~~
119~Multi pack 36 60 таблеток~default_variant:0;_value:143000 byr~~~~~~
120~Spirulina 60 капсул~default_variant:0;_value:121000 byr~~~~~~
121~Vital Stack 500 мл.~default_variant:0;_value:291500 byr~вкус:Лайм~вкус:Малина~вкус:Клубника~вкус:Тропический остров~вкус:Апельсин~
123~Ultra Men's Sport Multivitamin 90 таблеток~default_variant:0;_value:295000 byr~~~~~~
127~VitaMen 90 таблеток~default_variant:0;_value:396000 byr~~~~~~
128~Vitacore 90 таблеток~default_variant:0;_value:440000 byr~~~~~~
129~Mega Mineral Pack 60 капсул~default_variant:0;_value:171000 byr~~~~~~
131~Omega-3 60 капсул~default_variant:0;_value:121000 byr~~~~~~
132~Omega-3-6-9 60 капсул ~default_variant:0;_value:121000 byr~~~~~~
135~Coenzyme Q10 90 капсул~default_variant:0;_value:413000 byr~~~~~~
144~Opti-Women 60 капсул~default_variant:0;_value:275000 byr~~~~~~
145~Opti-Men 90 таблеток~default_variant:0;_value:430000 byr~~~~~~
146~Opti-Men 180 таблеток~default_variant:0;_value:695000 byr~~~~~~
147~Opti-Women 120 капсул~default_variant:0;_value:440000 byr~~~~~~
148~Opti-Men 150 таблеток~default_variant:0;_value:595000 byr~~~~~~
149~Opti-Men 240 таблеток~default_variant:0;_value:1120000 byr~~~~~~
525~Multi pack 36 120 таблеток~default_variant:0;_value:264000 byr~~~~~~
526~Multi pack 36 240 таблеток~default_variant:0;_value:489500 byr~~~~~~
531~Omega-3-6-9 120 капсул~default_variant:0;_value:214500 byr~~~~~~
532~Omega-3 120 капсул~default_variant:0;_value:214500 byr~~~~~~
542~Vital Stack 90 мл.~default_variant:0;_value:66000 byr~вкус:Лайм~вкус:Малина~вкус:Клубника~вкус:Тропический остров~вкус:Апельсин~вкус:Лимонад
598~Calcium Zinc Magnesium 90 таблеток~default_variant:0;_value:160000 byr~~~~~~
600~Daily Max 100 таблеток~default_variant:0;_value:135000 byr~~~~~~
603~Hair, Nails and Skin Formula 120 таблеток~default_variant:0;_value:319000 byr~~~~~~
605~B-Attack Complex 100 таблеток~default_variant:0;_value:270000 byr~~~~~~
606~JetPak (240 таблеток) 30 упаковок~default_variant:0;_value:858000 byr~~~~~~
607~Melatonin 60 таблеток~default_variant:0;_value:187000 byr~~~~~~
608~Omega-3 Gold 120 капсул~default_variant:0;_value:215000 byr~~~~~~
612~VitaMen 180 таблеток~default_variant:0;_value:633000 byr~~~~~~
613~VitaWomen 60 таблеток~default_variant:0;_value:292000 byr~~~~~~
614~VitaWomen 120 таблеток~default_variant:0;_value:468000 byr~~~~~~
654~Magnesium + Vitamin C 20 бутылочек~default_variant:0;_value:365000 byr~вкус:Лимон~~~~~
655~Ultra Women's Multivitamin 90 таблеток~default_variant:0;_value:295000 byr~~~~~~
656~Fit Active 500г~default_variant:0;_value:215000 byr~вкус:Тропический фрукт~вкус:Грейпфрут-лимон~~~~
657~Fit Active + L-carnitine 500г~default_variant:0;_value:255000 byr~вкус:Ананас~~~~~
658~Fit Active + CoQ10 500г~default_variant:0;_value:255000 byr~вкус:Клюква~~~~~
659~CoQ10 30 капсул~default_variant:0;_value:160000 byr~~~~~~
660~Omega 3-6-9 60 капсул~default_variant:0;_value:185000 byr~~~~~~
661~Fish Oil 1000мг 60 капсул~default_variant:0;_value:105000 byr~~~~~~
662~Lecithin 60 капсул~default_variant:0;_value:170000 byr~~~~~~
663~CLA+L-Carnitine 45 капсул~default_variant:0;_value:165000 byr~~~~~~
720~ФрешАп 1000мл~default_variant:0;_value:275000 byr~вкус:Лайм~вкус:Инжир~вкус:Мультифрукт~вкус:Мандарин~вкус:Клубника~
721~Мульти Вита+Спец.Б - Комплекс 90 капсул~default_variant:0;_value:253000 byr~~~~~~
792~Fitmiss Balance 90 капсул~default_variant:0;_value:605000 byr~~~~~~
793~Fitmiss Cleanse 60 капсул~default_variant:0;_value:512000 byr~~~~~~
810~ArmorV 180 капсул~default_variant:0;_value:605000 byr~~~~~~
849~Raspberry Ketones 90 капсул~default_variant:0;_value:396000 byr~~~~~~
853~Saw Palmetto 60 капсул~default_variant:0;_value:242000 byr~~~~~~
867~Omega-3 Fish Oil 100 капсул~default_variant:0;_value:358000 byr~~~~~~
882~Calcium Zinc Magnesium 100 таблеток~default_variant:0;_value:209000 byr~~~~~~
887~Daily Formula 100 таблеток~default_variant:0;_value:187000 byr~~~~~~
